MDCH08: Resampling Pennies Activity
…
Treat the sample as if it is the population.

Repeatedly resample from it with replacement. (use same \(n\))

Compute the relevant statistic from each resample.

Analyze the re-sampling distribution: shape, mean, standard error (SE).

Take 1 Resample of Size 50

my_virtual_resample <- pennies_sample %>% 
  rep_sample_n(size = 50, replace = TRUE)
my_virtual_resample

# A tibble: 50 x 3
# Groups:   replicate [1]
   replicate    ID  year
       <int> <int> <dbl>
 1         1    45  1997
 2         1    25  1979
 3         1     9  2004
 4         1    13  2015
 5         1    14  1978
 6         1    48  1988
 7         1    31  2013
 8         1    44  2015
 9         1    41  1992
10         1    21  1981
#  with 40 more rows
…
